<?xml version="1.0" standalone="no"?>
<!DOCTYPE svg PUBLIC "-//W3C//DTD SVG 20010904//EN"
 "http://www.w3.org/TR/2001/REC-SVG-20010904/DTD/svg10.dtd">
<svg version="1.0" xmlns="http://www.w3.org/2000/svg"
 width="1044.000000pt" height="1044.000000pt" viewBox="0 0 1044.000000 1044.000000"
 preserveAspectRatio="xMidYMid meet">
<metadata>
Created by potrace 1.14, written by Peter Selinger 2001-2017
</metadata>
<g transform="translate(0.000000,1044.000000) scale(0.100000,-0.100000)"
fill="#000000" stroke="none">
<path d="M0 5220 l0 -5220 5220 0 5220 0 0 5220 0 5220 -5220 0 -5220 0 0
-5220z m5540 4846 c176 -49 226 -73 485 -238 196 -124 404 -239 648 -358 416
-202 793 -337 1287 -460 215 -53 277 -74 381 -125 133 -66 218 -127 323 -232
178 -178 286 -375 342 -623 41 -185 112 -443 167 -610 13 -41 39 -120 56 -175
17 -55 35 -109 40 -120 5 -11 30 -72 56 -135 58 -143 256 -531 380 -745 32
-55 66 -113 75 -130 10 -16 55 -91 100 -165 90 -146 155 -278 164 -331 3 -19
15 -79 28 -134 30 -135 32 -388 4 -515 -10 -47 -20 -101 -23 -120 -11 -89 -39
-146 -188 -385 -62 -99 -145 -238 -185 -310 -95 -168 -343 -659 -360 -710 -7
-22 -22 -62 -35 -90 -12 -27 -25 -63 -29 -80 -4 -16 -19 -54 -32 -83 -13 -29
-22 -57 -19 -62 3 -5 -3 -26 -14 -46 -11 -21 -18 -41 -15 -46 3 -4 0 -8 -6 -8
-7 0 -9 -7 -6 -16 4 -9 0 -27 -9 -40 -8 -13 -17 -34 -19 -46 -3 -13 -5 -25 -6
-28 -2 -3 -2 -9 -1 -14 1 -5 -5 -23 -13 -41 -9 -18 -17 -42 -19 -53 -2 -12 -6
-24 -9 -28 -4 -3 -4 -12 -1 -20 3 -8 0 -20 -6 -27 -6 -8 -13 -30 -15 -51 -3
-20 -9 -42 -13 -49 -4 -6 -8 -21 -9 -32 -2 -33 -34 -175 -58 -260 -104 -360
-356 -647 -700 -797 -49 -21 -177 -61 -285 -89 -251 -64 -274 -71 -466 -131
-511 -160 -1068 -421 -1555 -726 -318 -199 -485 -250 -789 -239 -225 7 -389
58 -586 180 -359 222 -583 349 -798 452 -415 198 -829 344 -1322 465 -186 46
-282 81 -392 141 -120 65 -163 99 -278 214 -198 197 -280 358 -359 705 -37
159 -100 383 -148 520 -22 63 -48 140 -58 170 -10 30 -39 107 -65 170 -26 63
-54 133 -62 155 -8 22 -66 144 -128 270 -114 231 -244 464 -410 735 -86 140
-151 267 -142 277 3 2 0 21 -5 41 -57 230 -72 377 -52 517 41 293 58 337 231
616 406 655 662 1246 819 1894 105 434 169 567 367 772 111 114 218 191 358
257 92 44 151 62 474 146 295 77 705 222 1005 355 263 117 596 297 900 485
287 178 438 222 735 216 146 -3 183 -7 265 -30z"/>
<path d="M4880 9289 c-592 -70 -1033 -203 -1526 -458 -429 -223 -775 -492
-1137 -886 -328 -356 -581 -764 -777 -1254 -33 -82 -60 -153 -60 -156 0 -3 -7
-22 -17 -43 -9 -20 -17 -39 -18 -42 -1 -3 -5 -12 -8 -20 -35 -85 -89 -279
-121 -440 -56 -276 -92 -809 -66 -965 6 -33 15 -130 20 -215 19 -275 69 -501
187 -845 111 -320 236 -583 438 -923 29 -49 132 -197 187 -269 138 -179 223
-276 404 -454 339 -333 628 -540 1044 -748 432 -216 824 -336 1315 -403 148
-20 212 -23 500 -23 288 0 351 3 495 23 753 103 1429 386 2020 847 120 94 567
530 636 622 21 28 71 93 110 145 150 197 253 363 367 593 186 372 309 711 386
1065 63 287 101 843 71 1048 -5 37 -14 119 -20 182 -13 141 -24 206 -62 385
-100 473 -367 1076 -663 1500 -129 186 -267 344 -486 561 -202 199 -265 256
-350 319 -14 11 -53 40 -85 64 -177 135 -428 286 -659 397 -448 214 -878 336
-1382 389 -153 16 -616 19 -743 4z m860 -247 c456 -65 849 -189 1270 -403 268
-136 557 -329 740 -496 197 -179 490 -483 490 -508 0 -7 3 -15 8 -17 19 -8
149 -181 207 -276 6 -10 18 -28 27 -42 59 -89 292 -556 352 -705 45 -113 110
-313 131 -407 9 -40 23 -95 30 -123 8 -27 16 -72 20 -100 3 -27 13 -81 21
-119 8 -38 14 -89 13 -115 -2 -64 12 -194 23 -208 24 -31 31 -528 7 -558 -8
-11 -28 -178 -30 -260 -2 -49 -16 -145 -26 -175 -3 -8 -7 -35 -9 -60 -3 -44
-51 -240 -94 -388 -45 -154 -147 -409 -226 -562 -57 -111 -75 -135 -103 -127
-11 3 -24 1 -27 -4 -4 -7 39 -14 67 -11 4 1 30 -23 58 -53 39 -41 51 -61 51
-85 0 -69 -64 -139 -134 -147 -60 -7 -102 11 -137 60 -16 22 -29 34 -29 26 0
-8 7 -22 15 -32 7 -11 11 -26 8 -35 -8 -21 -162 -239 -222 -312 -140 -174
-324 -363 -486 -501 -22 -19 -42 -36 -45 -39 -16 -16 -158 -125 -230 -176
-170 -121 -307 -203 -516 -308 -463 -231 -892 -349 -1457 -401 -266 -24 -461
-17 -797 30 -608 85 -1182 315 -1714 685 -12 8 -48 35 -79 60 -32 25 -73 56
-91 70 -227 176 -484 447 -708 747 -41 55 -44 62 -27 66 12 3 17 11 13 20 -3
10 1 17 13 19 14 3 10 8 -17 20 -19 9 -49 31 -67 49 -62 65 -83 90 -81 97 3
16 -15 41 -25 35 -6 -4 -7 -1 -2 7 5 8 0 19 -12 29 -23 18 -126 213 -196 371
-62 141 -130 326 -171 469 -42 147 -50 181 -36 161 14 -22 13 11 -4 82 -7 32
-11 60 -8 63 3 3 1 5 -4 5 -5 0 -11 14 -12 32 -2 18 -7 35 -12 38 -15 10 -38
133 -44 245 -4 56 -13 141 -21 190 -19 114 -19 383 -1 495 8 47 17 126 21 175
51 697 358 1430 859 2056 83 103 401 418 516 510 579 466 1284 766 1984 844
72 8 147 16 166 19 19 2 172 3 340 1 241 -2 335 -7 450 -23z"/>
<path d="M5570 7487 c-31 -16 -54 -39 -77 -78 -18 -30 -32 -60 -33 -66 0 -23
-17 -14 -76 42 -33 30 -77 64 -99 74 -36 17 -44 17 -73 5 -48 -19 -69 -38
-247 -212 -88 -86 -199 -193 -245 -237 -246 -233 -511 -485 -635 -606 -77 -75
-173 -167 -213 -205 -80 -75 -102 -108 -102 -151 1 -41 21 -71 69 -103 34 -24
47 -27 72 -20 29 9 94 54 119 85 18 22 118 103 102 84 -10 -14 -10 -18 1 -22
8 -3 17 -19 20 -36 4 -17 7 -206 8 -419 2 -438 7 -530 38 -589 31 -62 113
-140 178 -171 l58 -27 805 0 805 0 70 34 c85 42 147 104 177 179 23 57 23 60
24 522 0 352 3 471 13 488 10 19 9 28 -4 54 l-15 32 27 -25 c15 -13 62 -56
103 -94 41 -39 91 -78 110 -87 30 -15 38 -15 70 -2 58 24 90 66 90 122 l1 47
-266 260 c-230 225 -296 295 -255 270 5 -3 8 0 5 7 -3 7 -6 182 -8 388 -2 416
1 398 -71 448 l-39 27 -231 3 c-226 3 -232 3 -276 -21z m317 -246 c-17 -6 -17
-9 -4 -19 12 -10 15 -40 13 -156 0 -80 -4 -148 -9 -152 -8 -9 -127 104 -127
121 0 5 4 3 10 -5 17 -27 21 -2 10 58 -7 34 -11 76 -8 95 3 25 0 33 -9 30 -7
-3 -13 0 -13 5 0 20 35 31 95 31 36 0 52 -3 42 -8z m-521 -193 c224 -212 609
-584 634 -612 14 -17 26 -38 26 -48 1 -10 3 -21 4 -25 2 -9 -1 -663 -5 -878
-1 -71 2 -143 7 -160 5 -16 12 -64 15 -106 5 -69 3 -79 -16 -98 -20 -20 -31
-21 -198 -20 -98 0 -172 3 -165 6 6 2 9 10 5 16 -5 7 -8 170 -8 363 l0 350
-28 37 c-54 71 -42 69 -391 69 -364 0 -360 1 -409 -94 l-28 -53 5 -325 c2
-213 0 -332 -7 -347 -10 -23 -13 -23 -171 -23 -89 0 -166 4 -172 8 -7 5 -10
175 -10 562 1 594 -1 673 -15 664 -14 -8 -11 24 5 54 28 54 767 762 795 762
10 0 67 -46 127 -102z m3 -1365 c-1 -5 -1 -10 0 -13 1 -3 2 -126 4 -273 1
-171 -1 -272 -8 -279 -7 -8 -6 -9 5 -3 11 6 12 5 4 -4 -7 -8 -49 -11 -134 -9
-102 3 -124 6 -125 18 -3 18 -9 551 -6 563 0 4 60 7 131 7 72 0 129 -3 129 -7z"/>
<path d="M4610 4645 c0 -2 17 -12 37 -22 20 -9 64 -44 96 -78 33 -33 55 -50
49 -38 -17 31 -120 120 -153 132 -16 5 -29 8 -29 6z"/>
<path d="M1725 4629 c17 -7 37 -16 45 -22 13 -10 13 -9 0 5 -8 9 -28 19 -45
22 l-30 6 30 -11z"/>
<path d="M2671 4627 c2 -2 18 -11 34 -21 l30 -17 -24 20 c-13 12 -28 21 -34
21 -6 0 -8 -1 -6 -3z"/>
<path d="M3501 4626 c2 -2 15 -9 29 -16 23 -12 24 -12 11 3 -7 10 -20 17 -29
17 -8 0 -13 -2 -11 -4z"/>
<path d="M5574 4614 c-18 -14 -18 -15 4 -4 12 6 22 13 22 15 0 8 -5 6 -26 -11z"/>
<path d="M6270 4625 c0 -2 10 -10 23 -16 20 -11 21 -11 8 4 -13 16 -31 23 -31
12z"/>
<path d="M7215 4618 c11 -6 29 -18 40 -27 12 -9 8 -4 -7 12 -16 15 -34 27 -41
27 -6 0 -3 -6 8 -12z"/>
<path d="M8080 4606 c0 -2 8 -10 18 -17 15 -13 16 -12 3 4 -13 16 -21 21 -21
13z"/>
<path d="M2781 4494 c0 -11 3 -14 6 -6 3 7 2 16 -1 19 -3 4 -6 -2 -5 -13z"/>
<path d="M3670 4405 c0 -5 5 -17 10 -25 5 -8 10 -10 10 -5 0 6 -5 17 -10 25
-5 8 -10 11 -10 5z"/>
<path d="M4900 4353 c40 -51 60 -70 60 -59 0 3 -23 29 -51 58 l-51 53 42 -52z"/>
<path d="M2725 4370 c-4 -6 -23 -19 -44 -29 -29 -15 -46 -18 -74 -12 -26 6
-34 5 -31 -4 3 -6 24 -12 47 -13 35 -1 49 4 82 33 22 19 37 34 33 35 -4 0 -10
-5 -13 -10z"/>
<path d="M8216 4367 c3 -10 9 -15 12 -12 3 3 0 11 -7 18 -10 9 -11 8 -5 -6z"/>
<path d="M5593 4330 c14 -11 33 -20 43 -20 11 0 1 9 -21 20 -22 11 -41 20 -43
20 -3 0 7 -9 21 -20z"/>
<path d="M5695 4340 c-3 -5 -2 -10 4 -10 5 0 13 5 16 10 3 6 2 10 -4 10 -5 0
-13 -4 -16 -10z"/>
<path d="M7204 4328 l-19 -21 28 18 c28 18 33 25 19 25 -5 0 -17 -10 -28 -22z"/>
<path d="M7120 4325 c7 -8 22 -15 34 -15 18 0 17 2 -8 15 -36 19 -42 19 -26 0z"/>
<path d="M2493 4217 c18 -18 34 -31 36 -30 6 4 -51 63 -60 63 -4 0 7 -15 24
-33z"/>
<path d="M5635 4210 c-18 -8 -18 -9 5 -9 14 -1 41 -10 60 -21 l35 -21 -33 31
c-35 32 -37 33 -67 20z"/>
<path d="M5058 4154 c45 -56 72 -81 72 -68 -1 5 -26 34 -57 64 l-56 55 41 -51z"/>
<path d="M1690 4180 c0 -5 5 -10 11 -10 5 0 7 5 4 10 -3 6 -8 10 -11 10 -2 0
-4 -4 -4 -10z"/>
<path d="M2199 4095 c-23 -38 -52 -46 -68 -17 -6 9 -11 12 -11 6 0 -6 9 -19
20 -29 18 -17 21 -17 38 -2 20 18 56 77 47 77 -3 0 -15 -16 -26 -35z"/>
<path d="M6736 4112 c-4 -10 -17 -25 -31 -32 -25 -13 -44 -4 -58 30 -4 11 -6
12 -6 2 -1 -17 37 -72 50 -72 12 0 64 79 56 86 -3 3 -8 -3 -11 -14z"/>
<path d="M1740 4113 c0 -6 8 -17 18 -24 16 -13 16 -13 2 6 -8 11 -16 22 -17
24 -2 2 -3 0 -3 -6z"/>
<path d="M1770 4061 c0 -5 5 -13 10 -16 6 -3 10 -2 10 4 0 5 -4 13 -10 16 -5
3 -10 2 -10 -4z"/>
<path d="M5174 4017 c16 -20 30 -37 33 -37 7 0 -36 58 -49 66 -7 4 1 -9 16
-29z"/>
<path d="M6310 4041 c0 -6 4 -13 10 -16 6 -3 7 1 4 9 -7 18 -14 21 -14 7z"/>
<path d="M1810 4001 c0 -6 4 -13 10 -16 6 -3 7 1 4 9 -7 18 -14 21 -14 7z"/>
<path d="M1840 3956 c0 -10 43 -77 47 -73 2 3 -6 21 -18 41 -19 33 -29 43 -29
32z"/>
<path d="M5265 3907 c21 -26 40 -45 43 -43 2 3 -15 24 -38 48 l-43 43 38 -48z"/>
<path d="M4910 3880 c0 -5 5 -10 11 -10 5 0 7 5 4 10 -3 6 -8 10 -11 10 -2 0
-4 -4 -4 -10z"/>
<path d="M1910 3841 c0 -6 4 -13 10 -16 6 -3 7 1 4 9 -7 18 -14 21 -14 7z"/>
<path d="M8140 3809 c0 -8 7 -24 15 -35 8 -10 14 -26 14 -34 0 -11 -4 -10 -15
5 -9 13 -17 16 -22 9 -7 -11 -52 -14 -52 -4 0 6 -226 -16 -245 -24 -5 -3 72
-5 173 -5 101 -1 182 3 182 8 0 5 -11 29 -25 52 -14 24 -25 37 -25 28z"/>
<path d="M4984 3785 c8 -8 18 -15 22 -15 3 0 1 7 -6 15 -7 8 -17 15 -22 15 -5
0 -3 -7 6 -15z"/>
<path d="M7825 3769 c-4 -6 -5 -12 -2 -15 2 -3 7 2 10 11 7 17 1 20 -8 4z"/>
<path d="M5493 3720 c0 -25 2 -35 4 -22 2 12 2 32 0 45 -2 12 -4 2 -4 -23z"/>
<path d="M3365 3735 c-58 -12 -53 -13 115 -13 127 0 167 2 145 9 -49 16 -195
18 -260 4z"/>
<path d="M5390 3747 c0 -2 15 -16 33 -33 l32 -29 -29 33 c-28 30 -36 37 -36
29z"/>
<path d="M5080 3681 c14 -27 60 -77 60 -64 -1 4 -17 26 -37 48 -22 25 -31 31
-23 16z"/>
<path d="M5184 3545 c8 -8 18 -15 22 -15 3 0 1 7 -6 15 -7 8 -17 15 -22 15 -5
0 -3 -7 6 -15z"/>
<path d="M3977 3504 c-38 -36 -45 -49 -37 -62 8 -15 9 -15 10 3 0 11 8 25 19
32 16 10 68 73 59 73 -2 0 -24 -21 -51 -46z"/>
<path d="M5264 3445 c8 -8 18 -15 22 -15 3 0 1 7 -6 15 -7 8 -17 15 -22 15 -5
0 -3 -7 6 -15z"/>
<path d="M3130 3415 c-7 -9 -11 -17 -9 -20 3 -2 10 5 17 15 14 24 10 26 -8 5z"/>
<path d="M4088 3383 c7 -3 16 -2 19 1 4 3 -2 6 -13 5 -11 0 -14 -3 -6 -6z"/>
<path d="M5344 3345 c8 -8 18 -15 22 -15 3 0 1 7 -6 15 -7 8 -17 15 -22 15 -5
0 -3 -7 6 -15z"/>
<path d="M5416 3267 c3 -10 9 -15 12 -12 3 3 0 11 -7 18 -10 9 -11 8 -5 -6z"/>
<path d="M5454 3215 c14 -14 28 -25 32 -25 4 0 -3 11 -16 25 -13 14 -27 25
-32 25 -5 0 2 -11 16 -25z"/>
<path d="M4125 3099 c-16 -10 -40 -19 -52 -19 -24 0 -31 -16 -11 -22 16 -6 60
17 83 42 22 24 19 24 -20 -1z"/>
<path d="M2915 3089 c-16 -11 -23 -19 -15 -19 16 1 56 27 49 34 -2 2 -17 -5
-34 -15z"/>
<path d="M2800 3090 c8 -5 20 -10 25 -10 6 0 3 5 -5 10 -8 5 -19 10 -25 10 -5
0 -3 -5 5 -10z"/>
<path d="M6740 3090 c-8 -5 -25 -10 -38 -10 -14 0 -20 -4 -17 -10 7 -12 40 -4
70 16 22 16 8 19 -15 4z"/>
<path d="M4558 3083 c7 -3 16 -2 19 1 4 3 -2 6 -13 5 -11 0 -14 -3 -6 -6z"/>
<path d="M5620 3080 c8 -5 20 -10 25 -10 6 0 3 5 -5 10 -8 5 -19 10 -25 10 -5
0 -3 -5 5 -10z"/>
<path d="M4590 3076 c0 -9 30 -14 35 -6 4 6 -3 10 -14 10 -12 0 -21 -2 -21 -4z"/>
</g>
</svg>
